Binary Logistic Regression
…
## [1] "tbl_df"     "tbl"        "data.frame"

dim(train)

## [1] 21508     4

train

## # A tibble: 21,508 × 4
##    workclass   marital.status   age Class
##    <fct>       <fct>          <dbl> <fct>
##  1 Private     Not-Married       82 <=50K
##  2 Private     Not-Married       54 <=50K
##  3 Private     Not-Married       41 <=50K
##  4 Private     Not-Married       34 <=50K
##  5 Private     Not-Married       38 <=50K
##  6 Federal-gov Not-Married       68 <=50K
##  7 Private     Never-married     41 >50K 
##  8 Private     Not-Married       45 >50K 
##  9 Private     Not-Married       52 >50K 
## 10 Private     Not-Married       46 >50K 
## # ℹ 21,498 more rows
…
5355

   #Total cases 

21508

test <- adult[-index, ]
class(test)

## [1] "tbl_df"     "tbl"        "data.frame"

test

## # A tibble: 9,217 × 4
##    workclass     marital.status   age Class
##    <fct>         <fct>          <dbl> <fct>
##  1 SL-gov        Never-married     74 >50K 
##  2 Self-employed Never-married     38 >50K 
##  3 Private       Not-Married       32 >50K 
##  4 Private       Married           21 <=50K
##  5 Private       Married           33 <=50K
##  6 Private       Married           49 <=50K
##  7 Self-employed Never-married     37 >50K 
##  8 Self-employed Not-Married       59 >50K 
##  9 Self-employed Never-married     60 >50K 
## 10 Private       Never-married     53 >50K 
## # ℹ 9,207 more rows
…
Let’s look at the original objects

dim(train)

## [1] 21508     4

train

## # A tibble: 21,508 × 4
##    workclass   marital.status   age Class
##    <fct>       <fct>          <dbl> <fct>
##  1 Private     Not-Married       82 <=50K
##  2 Private     Not-Married       54 <=50K
##  3 Private     Not-Married       41 <=50K
##  4 Private     Not-Married       34 <=50K
##  5 Private     Not-Married       38 <=50K
##  6 Federal-gov Not-Married       68 <=50K
##  7 Private     Never-married     41 >50K 
##  8 Private     Not-Married       45 >50K 
##  9 Private     Not-Married       52 >50K 
## 10 Private     Not-Married       46 >50K 
## # ℹ 21,498 more rows

dim(test)

## [1] 9217    4

test

## # A tibble: 9,217 × 4
##    workclass     marital.status   age Class
##    <fct>         <fct>          <dbl> <fct>
##  1 SL-gov        Never-married     74 >50K 
##  2 Self-employed Never-married     38 >50K 
##  3 Private       Not-Married       32 >50K 
##  4 Private       Married           21 <=50K
##  5 Private       Married           33 <=50K
##  6 Private       Married           49 <=50K
##  7 Self-employed Never-married     37 >50K 
##  8 Self-employed Not-Married       59 >50K 
##  9 Self-employed Never-married     60 >50K 
## 10 Private       Never-married     53 >50K 
## # ℹ 9,207 more rows
…
