Binary Logistic Regression
…
Building the Model

# Loading caret library
require(caret)
# Splitting the data into train and test
index <- createDataPartition(adult$Class, p = .70, list = FALSE)
train <- adult[index, ]
train

## # A tibble: 21,508 × 4
##    workclass     marital.status   age Class
##    <fct>         <fct>          <dbl> <fct>
##  1 Private       Not-Married       82 <=50K
##  2 Private       Not-Married       54 <=50K
##  3 Private       Not-Married       41 <=50K
##  4 Private       Not-Married       34 <=50K
##  5 Private       Not-Married       38 <=50K
##  6 SL-gov        Never-married     74 >50K 
##  7 Private       Never-married     41 >50K 
##  8 Private       Not-Married       45 >50K 
##  9 Self-employed Never-married     38 >50K 
## 10 Private       Not-Married       52 >50K 
## # ℹ 21,498 more rows
…
16153

   >50K 

5355

   #Total cases 

21508

test <- adult[-index, ]
test

## # A tibble: 9,217 × 4
##    workclass     marital.status   age Class
##    <fct>         <fct>          <dbl> <fct>
##  1 Federal-gov   Not-Married       68 <=50K
##  2 Private       Not-Married       57 >50K 
##  3 Private       Not-Married       34 >50K 
##  4 Private       Not-Married       29 <=50K
##  5 Private       Married           21 <=50K
##  6 Private       Married           33 <=50K
##  7 Private       Married           49 <=50K
##  8 Private       Not-Married       51 >50K 
##  9 Self-employed Never-married     60 >50K 
## 10 Federal-gov   Not-Married       63 >50K 
## # ℹ 9,207 more rows
…
